%YAML 1.1
%TAG !u! tag:unity3d.com,2011:
--- !u!1045 &1
EditorBuildSettings:
  m_ObjectHideFlags: 0
  serializedVersion: 2
  m_Scenes:
  - enabled: 1
    path: Assets/Scenes/Awake.unity
    guid: ff9f7cce61ef1c84eb20abcc73043551
  - enabled: 1
    path: Assets/Scenes/First Example.unity
    guid: fe77afb750eb3e64ba1011f6de90e869
  - enabled: 1
    path: Assets/Scenes/dieScene.unity
    guid: 91b9b86e92e4065458e06716b249a568
  - enabled: 1
    path: Assets/Scenes/endOfGame.unity
    guid: e7860391f0c55d64aa088724e32de898
  m_configObjects: {}
